&input
  megul = 76,  ! input from module CONGEN
  icidg = 1,   !0 - do not diagonalize for parallel, 1 - do diagonalise Hamiltonian matrix for serial
  iexpc = 1,   ! prototype CI expansion flag - 1 for scattering calculation
  icitg = 1,   ! CI target flag - 1 = perform CI target contraction
  idiag = 2,   ! matrix element evaluation flag - 2 = do not evaluate pure target integrals
  nftg = 0,    ! CI target vectors switch - 0 = use scattering wavefunctions to generated (phase corrected) target wavefunctions
  ntgsym = 1,  ! number of target state symmetries (>1 in CAS calculations)
  mcont = 6,   ! lambda value ('symmetry') of the continuum orbitals associated with each target state
  notgt = 77, ! number of continuum orbitals associated with each target symmetry
  numtgt = 1, ! number of target states for each symmetries
  ukrmolp_ints = .true., !true if you run UKRmol+ suite, false for old version of code
  nftg=266,
  ntgts=1,
  ntgtf=1,
&end
&cinorn
  name = 'H2 scattering CI calculation - doublet Ag',
  igh = 1,
  NPFLG(1) = 0,
  NPFLG(2) = 0,
  NCISET = 7,
&end
