+-------------------------------------------------------------------------+
|              _              |                                           |
| || || ||//  | \          |  | University College London (C) 1994 - 2019 |
| || || ||    | / |/\/\ /\ |  | Open University           (C) 2007 - 2019 |
| \\_// ||\\  | \ | | | \/ |  |                                           |
|                             |                                           |
+-------------------------------------------------------------------------+
| Last revision: 2.0.2                                                    |
| Last author:   Jimena Gorfinkiel                                        |
| Last date:     Tue Mar 12 13:22:01 2019 +0000                           |
+-------------------------------------------------------------------------+

                    CDENPROP (2011) 

                    Transition dipoles program 



1-electron integrals read-in.

Number of types of property integrals:    9
 READING PROPERTIES FILE
 reading target states

 Transition moments

 Writing properties to unit    624
