
                                                      $$$$$$$$$$$$$$$$$$$$$$$$$$$$$$$$$$$$$$$$$$$$$$$$$$$$$$$$$$$$$$$$$$     
 $                                                                $
 $                Subversion Revision Information                 $
 $                                                                $
                                         $Id:: swinterf.f 663 2011-06-15 09:42:21Z jimena                 $     
 $                                                                $
                                     $URL:: http://ccpforge.cse.rl.ac.uk/svn/ukrmol-in/trunk/source/s#$     
                                                      $LastChangedBy:: jimena                                          $     
                                                      $LastChangedDate:: 2011-06-15 10:42:21 +0100 (Wed, 15 Jun 2011)  $     
                                                      $LastChangedRevision:: 663                                       $     
 $                                                                $
                                     $$$$$$$$$$$$$$$$$$$$$$$$$$$$$$$$$$$$$$$$$$$$$$$$$$$$$$$$$$$$$$$$$$     



 Program SWINTERF  ( last modified 12-Jan-2004 )

e + H2O2 - singlet B                                        20190409  070959.806


 Symmetry data   MGVN = 1 STOT = 1

 Input datasets:             Unit  Set number
 Target data          LUTARG  24       1       FORMATTED
 Boundary amplitudes  LUAMP   22       1     UNFORMATTED
 CI data              LUCI    25       1     UNFORMATTED
 Buttle corrections   LUBUT    0       1     UNFORMATTED

 Output datasets:            Unit  Set number
 Channel data         LUCHAN  10       1     UNFORMATTED
 R-Matrix data        LURMT   21       1     UNFORMATTED

 We are using UKRmol+ input

 Assuming full CI vectors have been saved on LUCI 

 Target rotational constants (a.u.)   0.496109D-04   0.434829D-05   0.421892D-05

 Nuclear centres 
    Atom  Charge      X         Y         Z         Mass
  1   O      8    -0.000000  1.310903 -0.057709   15.994900
  2   O      8     0.000000 -1.310903 -0.057709   15.994900
  3   H      1     1.436570  1.708123  0.915878    1.007800
  4   H      1    -1.436570 -1.708123  0.915878    1.007800

 Reduced mass     864.081366 au

 Transition moments
    2    0    2    0    1    0  -0.99646
    2    0    2    0    2   -2  -3.87321
    2    0    2    0    2    0   2.51397
    2    0    2    0    2    2   0.71632
    1    1    2    0    1   -1  -0.49387
    1    1    2    0    1    1  -0.00673
    1    1    2    0    2   -1  -0.36625
    1    1    2    0    2    1   0.55606
    1    1    1    1    1    0  -0.79464
    1    1    1    1    2   -2  -4.83834
    1    1    1    1    2    0   1.54659
    1    1    1    1    2    2   0.88386

 READCIP start

 CI file header data:
 --------------------
 MGVN  =  1
 NSET  =  1
 NSTAT =        339
 NOCSF =        339

 READCIP end

 R-matrix radius  =   20.00
 Residual charge on system = 1

 Channel Target  l  m  q       Irr  Energy   Energy(eV)
    1       1    0  0  0  N/A   1  0.000000  0.000000
    2       1    1  0  0  N/A   1  0.000000  0.000000
    3       1    2  2 -1  N/A   1  0.000000  0.000000
    4       1    2  0  0  N/A   1  0.000000  0.000000
    5       1    2  2  1  N/A   1  0.000000  0.000000
    6       1    3  2 -1  N/A   1  0.000000  0.000000
    7       1    3  0  0  N/A   1  0.000000  0.000000
    8       1    3  2  1  N/A   1  0.000000  0.000000
    9       1    4  4 -1  N/A   1  0.000000  0.000000
   10       1    4  2 -1  N/A   1  0.000000  0.000000
   11       1    4  0  0  N/A   1  0.000000  0.000000
   12       1    4  2  1  N/A   1  0.000000  0.000000
   13       1    4  4  1  N/A   1  0.000000  0.000000
   14       2    1  1 -1  N/A   2  0.088259  1.200805
   15       2    1  1  1  N/A   2  0.088259  1.200805
   16       2    2  1 -1  N/A   2  0.088259  1.200805
   17       2    2  1  1  N/A   2  0.088259  1.200805
   18       2    3  3 -1  N/A   2  0.088259  1.200805
   19       2    3  1 -1  N/A   2  0.088259  1.200805
   20       2    3  1  1  N/A   2  0.088259  1.200805
   21       2    3  3  1  N/A   2  0.088259  1.200805
   22       2    4  3 -1  N/A   2  0.088259  1.200805
   23       2    4  1 -1  N/A   2  0.088259  1.200805
   24       2    4  1  1  N/A   2  0.088259  1.200805
   25       2    4  3  1  N/A   2  0.088259  1.200805

 Dimension of Hamiltonian matrix           NOCSF =       339
 Number of CSFs used to construct R-matrix NSTAT =  339
 Number of eigenvectors to be retained     NPOLE =    0
 Number of multipoles in potential         ISMAX =    2

 READCIP start

 Reading CI coefficients...
 Last pole include at                  339  is   -131.08371979433051       Ryd

 READCIP end

     R-matrix boundary amplitudes 

     At radial distance RMATR -      0.00000000 Bohr radii
     No. of channels     =    25
     No. of eigenvectors =   339
     No. of correction terms =     0


     First 30 R-matrix amplitudes

     Channel =   1     -0.00470195      0.01069149     -0.07233968
                       -0.12577279     -0.03967640     -0.07558563
                       -0.02719421      0.06551609      0.03243086
                        0.00655455     -0.00397010      0.00222003
                        0.13923280     -0.02520596     -0.09337724
                       -0.20594703      0.00029655      0.00158443
                       -0.00052978     -0.00197256      0.00076772
                       -0.01665174      0.00024487      0.02314947
                        0.01164041     -0.02998459     -0.05936795
                        0.02791747     -0.00550373      0.00050444
     Channel =   2     -0.00164466     -0.03723561     -0.02615684
                       -0.03863553     -0.03118976     -0.02309887
                        0.01691147     -0.20289287     -0.12217480
                       -0.00222050     -0.00241693     -0.00022316
                        0.02543132      0.03961832     -0.06227373
                       -0.06058208      0.00046524      0.00108848
                        0.00002931      0.00063396     -0.00032634
                        0.00932589     -0.00572562     -0.00396402
                       -0.02308769      0.07636701      0.20503078
                       -0.10857072      0.02265257     -0.00204988
     Channel =   3     -0.00046205      0.00098326      0.02326689
                       -0.01028288     -0.07796077      0.04332627
                       -0.08367506     -0.02637996      0.05472768
                       -0.02524615      0.00768195      0.01249836
                        0.03058526      0.17201852      0.18061424
                       -0.08765255      0.00205594      0.00046081
                        0.00074926      0.00020722     -0.00087593
                        0.00680390     -0.00185918     -0.01403255
                       -0.02417471      0.02338813     -0.00803616
                        0.00896355     -0.01318190     -0.00028625
     Channel =   4     -0.00009574     -0.00791081     -0.01961944
                        0.01134117      0.05585533     -0.03189762
                       -0.10499795     -0.05924796     -0.00017838
                        0.02324976     -0.00348708      0.01790574
                       -0.02324533     -0.19400415      0.15276651
                       -0.07994941     -0.00192311      0.00075636
                       -0.00132930     -0.00022786     -0.00036891
                       -0.00392120     -0.00244450      0.01525791
                       -0.01719238     -0.00579027      0.05097276
                       -0.02787897     -0.01475874     -0.00083028
     Channel =   5     -0.00011189      0.00075561     -0.01380939
                        0.04164684     -0.05245699     -0.09645060
                        0.00766105     -0.01348831      0.06179426
                        0.00260734      0.02761928     -0.00686875
                       -0.22260434      0.02911188     -0.05655242
                       -0.12451774     -0.00063272     -0.00109017
                        0.00030148     -0.00159832      0.00052655
                       -0.00821031     -0.00343124      0.03074316
                       -0.02538985     -0.01422986     -0.01440691
                        0.03839373     -0.00015712      0.00073944
     Channel =   6     -0.00012541     -0.00091404      0.00236412
                       -0.00139566     -0.00892821      0.00422533
                       -0.00803792     -0.00344009      0.00164142
                        0.17460152     -0.06101187     -0.14776021
                        0.00003409      0.02807504      0.01942564
                       -0.00251311     -0.01586336      0.00157963
                       -0.01232372      0.00310408      0.01741218
                       -0.02666120     -0.01824309     -0.00988605
                        0.00261337     -0.17952414      0.02364532
                       -0.06036522      0.15254757      0.00082945
     Channel =   7      0.00005107     -0.00020398     -0.00247989
                        0.00211152      0.00810177     -0.00424057
                       -0.01376621     -0.00350401      0.00021398
                       -0.14595176      0.00071580     -0.18835878
                        0.00211126     -0.02920506      0.01135515
                       -0.01088969      0.01281140      0.00047409
                        0.01625645      0.00123508      0.01952208
                        0.01652646     -0.01805301      0.00696488
                        0.00398616      0.14338638     -0.05821419
                        0.02431899      0.19220688     -0.00245230
     Channel =   8     -0.00000430      0.00023624     -0.00177799
                        0.00462802     -0.00544789     -0.00933817
                        0.00058221      0.00029031      0.00620290
                       -0.04742707     -0.22935340      0.03852904
                       -0.02794398      0.00444920     -0.00566084
                       -0.01189997      0.00362270      0.00996063
                        0.00338542      0.02427927     -0.00380384
                        0.01380896     -0.02834390      0.00633802
                        0.00586590      0.02254923     -0.12191874
                       -0.20988625     -0.03662120     -0.00673141
     Channel =   9     -0.00000131      0.00001472     -0.00041041
                        0.00092163     -0.00071554     -0.00205344
                        0.00049452     -0.00011448      0.00079107
                        0.00015394      0.00031453     -0.00015055
                       -0.00190770      0.00001389     -0.00010184
                        0.00167934      0.08889983      0.23780303
                       -0.09421215     -0.09879552      0.01659648
                        0.00614828     -0.00099364      0.00073886
                        0.00039225     -0.00045842     -0.00024335
                        0.00048506     -0.00032507     -0.01091236
     Channel =  10     -0.00000985     -0.00022148     -0.00025941
                        0.00012168      0.00057491     -0.00036401
                       -0.00134026     -0.00060266     -0.00020465
                        0.01596600     -0.00540355     -0.01228998
                       -0.00033269      0.00046329      0.00136807
                        0.00034740      0.16694646     -0.02562500
                        0.12419001     -0.06113899     -0.18824993
                       -0.01292121     -0.00862464     -0.00113382
                        0.00056731     -0.01717623      0.00277211
                       -0.00508184      0.01186341     -0.00650959
     Channel =  11      0.00000795      0.00011502      0.00010551
                       -0.00001396     -0.00011451      0.00016488
                       -0.00032559      0.00017276      0.00007103
                       -0.01528489      0.00019242     -0.01830113
                        0.00045809     -0.00111659      0.00039324
                       -0.00089728     -0.12013504      0.00034189
                       -0.15373020      0.00321948     -0.21266033
                       -0.00546637     -0.00794241      0.00064127
                        0.00081035      0.01588722     -0.00581584
                        0.00276820      0.01721217      0.00382833
     Channel =  12      0.00000223      0.00003643      0.00000667
                        0.00000217     -0.00021487      0.00005699
                        0.00028522      0.00020158      0.00007537
                       -0.00429084     -0.02012534      0.00326306
                       -0.00123664      0.00035571     -0.00021095
                       -0.00096183     -0.03998510     -0.10681777
                       -0.03033908     -0.25832598      0.04090422
                        0.03224756     -0.00468754      0.00178559
                        0.00135269      0.00204525     -0.01037732
                       -0.01855714     -0.00295696      0.00148292
     Channel =  13      0.00001620     -0.00002674     -0.00046207
                       -0.00004509      0.00178416     -0.00044592
                        0.00156377      0.00052612     -0.00107330
                        0.00027946     -0.00023032     -0.00014734
                       -0.00013909     -0.00122794     -0.00032894
                       -0.00087130      0.17564001     -0.12044027
                       -0.18506005      0.05068847      0.03501111
                        0.00305305      0.00029126      0.00016982
                        0.00054267     -0.00000496     -0.00027679
                        0.00011034      0.00009064     -0.01232475
     Channel =  14     -0.00020251      0.00041182      0.00630915
                       -0.00783663      0.00409646     -0.00494950
                        0.00373839     -0.00824380      0.01744214
                       -0.00043711     -0.00127260     -0.00022596
                        0.01708716      0.00255779     -0.00384172
                        0.02336088     -0.00020884     -0.00111933
                       -0.00092762     -0.00275474      0.00163657
                       -0.03409021      0.00531430      0.15225086
                       -0.16956914      0.00398291     -0.01105262
                       -0.01177786      0.00660494     -0.00056082
     Channel =  15     -0.00004683     -0.00003008      0.00784035
                       -0.00206328     -0.00209793     -0.00780065
                       -0.00596057      0.00935287     -0.01975972
                       -0.00208228      0.00059466      0.00082849
                       -0.00491125      0.01213758      0.01582533
                        0.00263027     -0.00074292     -0.00119728
                       -0.00104276     -0.00462906      0.00336111
                       -0.05872751     -0.00115619      0.14117056
                        0.17124233      0.02330706      0.02998438
                       -0.01081750     -0.00959823      0.00336894
     Channel =  16     -0.00006076     -0.00079520      0.00134064
                       -0.00177939      0.00066150     -0.00158605
                        0.00130546     -0.00503191      0.00295884
                        0.00460076      0.00589401      0.00265804
                        0.00423921      0.00076048     -0.00178571
                        0.00505336     -0.00011493      0.00120463
                        0.00136729      0.00641442     -0.00098989
                        0.06174200     -0.11807532      0.05007377
                       -0.01828418     -0.03279417      0.01340920
                        0.04614674     -0.02138924     -0.01308685
     Channel =  17     -0.00000072     -0.00010927      0.00191289
                       -0.00041695     -0.00013534     -0.00179649
                       -0.00090502      0.00193368     -0.00414849
                        0.00474491     -0.00151534     -0.00374618
                       -0.00081063      0.00262288      0.00306306
                       -0.00099178      0.00076819      0.00179156
                        0.00170355      0.00693299     -0.00648972
                        0.08026592      0.08064827      0.06206257
                        0.03599132     -0.04191516      0.00192010
                       -0.00832986      0.03269856     -0.01387197
     Channel =  18     -0.00000379      0.00000899     -0.00002989
                        0.00070159     -0.00097837     -0.00181373
                       -0.00007215      0.00012587      0.00021643
                       -0.00011274      0.00046217      0.00005973
                       -0.00277865      0.00059500     -0.00024668
                       -0.00108565     -0.00520922      0.00428462
                        0.00588637     -0.00001280     -0.00129559
                       -0.00008215     -0.00086479      0.00220940
                        0.00378761     -0.00155684      0.00105525
                        0.00131217      0.00297321     -0.15863313
     Channel =  19     -0.00000369     -0.00017390     -0.00041960
                        0.00035882      0.00062127     -0.00084738
                       -0.00145472     -0.00094881      0.00041879
                        0.00077941      0.00085430      0.00061560
                       -0.00071441     -0.00195227      0.00115984
                       -0.00074453      0.00332971      0.00259833
                        0.00400735      0.00672909      0.00304684
                        0.00998764     -0.01896459      0.00517497
                        0.00306005     -0.00544054      0.00367442
                        0.00647055     -0.00394964      0.07600187
     Channel =  20      0.00000479      0.00002246     -0.00007474
                        0.00007003      0.00036867     -0.00020216
                        0.00025405      0.00034399     -0.00034374
                        0.00078420     -0.00009071     -0.00046768
                       -0.00016427     -0.00042468     -0.00033378
                       -0.00008744      0.00388702     -0.00030670
                        0.00308168     -0.00030133     -0.00514377
                        0.01316869      0.01276496      0.00676588
                        0.00272124     -0.00628562     -0.00096341
                       -0.00424081      0.00780360      0.07679291
     Channel =  21      0.00001192     -0.00001292     -0.00068046
                        0.00031174      0.00113041     -0.00058458
                        0.00128528      0.00072146     -0.00132600
                        0.00033617      0.00005993     -0.00020116
                       -0.00070924     -0.00200621     -0.00173327
                        0.00038386      0.00366920      0.00714503
                       -0.00217338     -0.00348227     -0.00055968
                       -0.00096378      0.00205310     -0.00184860
                        0.00005678      0.00108588     -0.00234835
                       -0.00522894      0.00362667      0.13473026
     Channel =  22     -0.00000003      0.00000124      0.00000695
                        0.00008042     -0.00006556     -0.00024261
                        0.00002069      0.00008061     -0.00006915
                       -0.00052176     -0.00280579      0.00042098
                       -0.00039175      0.00005356     -0.00004649
                       -0.00011333     -0.00035566      0.00019029
                        0.00031816      0.00042613     -0.00006882
                        0.00094845      0.00067311      0.00079137
                        0.00073530     -0.00032825     -0.00039485
                       -0.00074427      0.00041075     -0.01349073
     Channel =  23      0.00000139     -0.00000507     -0.00010404
                        0.00009066      0.00006484     -0.00008291
                       -0.00025860     -0.00004256      0.00000413
                       -0.00197090     -0.00102093     -0.00201496
                       -0.00014505     -0.00032110      0.00012569
                       -0.00020977      0.00030461      0.00021188
                        0.00038721      0.00049568      0.00049886
                       -0.00003003     -0.00078480     -0.00014666
                        0.00052685      0.00067301     -0.00023022
                       -0.00012606      0.00024969      0.00963750
     Channel =  24      0.00000142      0.00001286     -0.00005378
                        0.00002402      0.00000278      0.00001668
                        0.00012189      0.00004387      0.00000420
                       -0.00083148      0.00030254      0.00061167
                       -0.00003564     -0.00005834     -0.00017530
                       -0.00001698      0.00036225     -0.00000135
                        0.00028078     -0.00001460     -0.00032065
                        0.00006108      0.00071890     -0.00015344
                        0.00000743      0.00027201     -0.00020126
                       -0.00046054      0.00032673      0.00988169
     Channel =  25      0.00000318      0.00001437     -0.00010328
                        0.00002835      0.00014417      0.00001743
                        0.00011908      0.00011255     -0.00018352
                       -0.00216100      0.00066812      0.00179856
                       -0.00000494     -0.00035439     -0.00017516
                       -0.00004091      0.00025519      0.00044539
                        0.00014839     -0.00016160     -0.00022947
                       -0.00063709      0.00137881     -0.00051503
                        0.00013203      0.00119091     -0.00041945
                       -0.00053724      0.00006409      0.01144806

 Channel data will be written UNFORMATTED to set number  1 on unit number 10
 Header :e + H2O2 - singlet B                                        20190409  070959.806

 Target state    Spin    M    G/U  Energy (au)
         1         2     1     0 -150.422432
         2         2     0     0 -150.378302

 Residual charge on system = 1

 Channel   Target state  L   M  Threshold (Ryd)
    1            1       0   0    0.000000
    2            1       1   0    0.000000
    3            1       2  -2    0.000000
    4            1       2   0    0.000000
    5            1       2   2    0.000000
    6            1       3  -2    0.000000
    7            1       3   0    0.000000
    8            1       3   2    0.000000
    9            1       4  -4    0.000000
   10            1       4  -2    0.000000
   11            1       4   0    0.000000
   12            1       4   2    0.000000
   13            1       4   4    0.000000
   14            2       1  -1    0.088259
   15            2       1   1    0.088259
   16            2       2  -1    0.088259
   17            2       2   1    0.088259
   18            2       3  -3    0.088259
   19            2       3  -1    0.088259
   20            2       3   1    0.088259
   21            2       3   3    0.088259
   22            2       4  -3    0.088259
   23            2       4  -1    0.088259
   24            2       4   1    0.088259
   25            2       4   3    0.088259

 R-matrix data will be written UNFORMATTED to set number  1 on unit number 21
 Header :e + H2O2 - singlet B                                        20190409  070959.806


 *** Task has been successfully completed ***


 Program RSOLVE  (last modified 05-Jan-2004 )

e + H2O2 - singlet B - K-matrices                           20190409  070959.900

 Symmetry data  MGVN = 1 STOT = 1 GUTOT = 0

 Fixed nuclei calculation for R = 0.000

 Input datasets:                                 Unit  Set numbers
 Target and channel data     LUCHAN (UNFORMATTED) 10       1
 Fixed nuclei R-matrix data  LURMT  (UNFORMATTED) 21       1

 Output datasets:                                Unit  Set number
 K-matrices                  LUKMT  (FORMATTED  ) 19       1

 K-matrices will be calculated for  200 energies in the range [  0.1000, 20.1000] EV 

 *** FIXED NUCLEI DATA ***

 R-matrix data has been read from set number  1 on unit number 21
 Header :e + H2O2 - singlet B                                        20190409  070959.806

 Dimension of Hamiltonian matrix           =       339
 Number of CI vectors stored on file       =    0
 Maximum multipole in asymptotic potential =    2
 R-matrix radius                           =   20.0000

 Maximum multipole USED in asymptotic scattering potentials   ISMAX =  2

 *** FIXED NUCLEI DATA ***

 Target and channel data is read from set  1 on unit 10

 Target state    Spin    M    G/U  Energy (au)
         1         2     1     0 -150.422432
         2         2     0     0 -150.378302

 Channel   Vibronic level   L   M  Threshold (Ryd)
    1              1        0   0    0.000000
    2              1        1   0    0.000000
    3              1        2  -2    0.000000
    4              1        2   0    0.000000
    5              1        2   2    0.000000
    6              1        3  -2    0.000000
    7              1        3   0    0.000000
    8              1        3   2    0.000000
    9              1        4  -4    0.000000
   10              1        4  -2    0.000000
   11              1        4   0    0.000000
   12              1        4   2    0.000000
   13              1        4   4    0.000000
   14              2        1  -1    0.088259
   15              2        1   1    0.088259
   16              2        2  -1    0.088259
   17              2        2   1    0.088259
   18              2        3  -3    0.088259
   19              2        3  -1    0.088259
   20              2        3   1    0.088259
   21              2        3   3    0.088259
   22              2        4  -3    0.088259
   23              2        4  -1    0.088259
   24              2        4   1    0.088259
   25              2        4   3    0.088259

 R-matrix data has been read from set number  1 on unit number 21
 Header :e + H2O2 - singlet B                                        20190409  070959.806

 Dimension of Hamiltonian matrix           =       339
 Number of CI vectors stored on file       =    0
 Maximum multipole in asymptotic potential =    2
 R-matrix radius                           =   20.0000
 IWRON                    0

 ASYMPTOTIC METHOD SELECTED : COULOMB/BESSEL
 EXPANSION USED AT RADIUS =   20.0000

 K-matrices will be written to set  1 on unit 19
Assuming scattering particle is electron.
  1   O      8    -0.000000  1.310903 -0.057709   15.994900
  2   O      8     0.000000 -1.310903 -0.057709   15.994900
  3   H      1     1.436570  1.708123  0.915878    1.007800
  4   H      1    -1.436570 -1.708123  0.915878    1.007800

 Transition moments
                    1
                    2
                    3
                    4
                    5
                    6
                    7
                    8
                    9
                   10
                   11
 COULN : IERR = 1 L =  1 E=  -0.00006 NLAST = 20 EPS =.100D-09 EFX =.100D+01 FNORM =  0.100000000000D+01
 COULN : IERR = 1 L =  1 E=  -0.00006 NLAST = 20 EPS =.100D-09 EFX =.100D+01 FNORM =  0.100000000000D+01
 COULN : IERR = 1 L =  2 E=  -0.00006 NLAST = 20 EPS =.100D-09 EFX =.100D+01 FNORM =  0.100000000000D+01
 COULN : IERR = 1 L =  2 E=  -0.00006 NLAST = 20 EPS =.100D-09 EFX =.100D+01 FNORM =  0.100000000000D+01
 COULN : IERR = 1 L =  3 E=  -0.00006 NLAST = 20 EPS =.100D-09 EFX =.100D+01 FNORM =  0.100000000000D+01
 COULN : IERR = 1 L =  3 E=  -0.00006 NLAST = 20 EPS =.100D-09 EFX =.100D+01 FNORM =  0.100000000000D+01
 COULN : IERR = 1 L =  3 E=  -0.00006 NLAST = 20 EPS =.100D-09 EFX =.100D+01 FNORM =  0.100000000000D+01
 COULN : IERR = 1 L =  3 E=  -0.00006 NLAST = 20 EPS =.100D-09 EFX =.100D+01 FNORM =  0.100000000000D+01
 COULN : IERR = 1 L =  4 E=  -0.00006 NLAST = 20 EPS =.100D-09 EFX =.100D+01 FNORM =  0.100000000000D+01
 COULN : IERR = 1 L =  4 E=  -0.00006 NLAST = 20 EPS =.100D-09 EFX =.100D+01 FNORM =  0.100000000000D+01
 COULN : IERR = 1 L =  4 E=  -0.00006 NLAST = 20 EPS =.100D-09 EFX =.100D+01 FNORM =  0.100000000000D+01
 COULN : IERR = 1 L =  4 E=  -0.00006 NLAST = 20 EPS =.100D-09 EFX =.100D+01 FNORM =  0.100000000000D+01
                   12
                   13
                   14
                   15
                   16
                   17
                   18
                   19
                   20
                   21
                   22
                   23
                   24
                   25
                   26
                   27
                   28
                   29
                   30
                   31
                   32
                   33
                   34
                   35
                   36
                   37
                   38
                   39
                   40
                   41
                   42
                   43
                   44
                   45
                   46
                   47
                   48
                   49
                   50
                   51
                   52
                   53
                   54
                   55
                   56
                   57
                   58
                   59
                   60
                   61
                   62
                   63
                   64
                   65
                   66
                   67
                   68
                   69
                   70
                   71
                   72
                   73
                   74
                   75
                   76
                   77
                   78
                   79
                   80
                   81
                   82
                   83
                   84
                   85
                   86
                   87
                   88
                   89
                   90
                   91
                   92
                   93
                   94
                   95
                   96
                   97
                   98
                   99
                  100
                  101
                  102
                  103
                  104
                  105
                  106
                  107
                  108
                  109
                  110
                  111
                  112
                  113
                  114
                  115
                  116
                  117
                  118
                  119
                  120
                  121
                  122
                  123
                  124
                  125
                  126
                  127
                  128
                  129
                  130
                  131
                  132
                  133
                  134
                  135
                  136
                  137
                  138
                  139
                  140
                  141
                  142
                  143
                  144
                  145
                  146
                  147
                  148
                  149
                  150
                  151
                  152
                  153
                  154
                  155
                  156
                  157
                  158
                  159
                  160
                  161
                  162
                  163
                  164
                  165
                  166
                  167
                  168
                  169
                  170
                  171
                  172
                  173
                  174
                  175
                  176
                  177
                  178
                  179
                  180
                  181
                  182
                  183
                  184
                  185
                  186
                  187
                  188
                  189
                  190
                  191
                  192
                  193
                  194
                  195
                  196
                  197
                  198
                  199
                  200

Number of energy points for which the K matrices have     actually been calculated:      0

 *** Task successfully completed ***
