
 $$$$$$$$$$$$$$$$$$$$$$$$$$$$$$$$$$$$$$$$$$$$$$$$$$$$$$$$$$$$$$$$$$     
 $                                                                $
 $                Subversion Revision Information                 $
 $                                                                $
 $Id:: swinterf.f 663 2011-06-15 09:42:21Z jimena                 $     
 $                                                                $
 $URL:: http://ccpforge.cse.rl.ac.uk/svn/ukrmol-in/trunk/source/s#$     
 $LastChangedBy:: jimena                                          $     
 $LastChangedDate:: 2011-06-15 10:42:21 +0100 (Wed, 15 Jun 2011)  $     
 $LastChangedRevision:: 663                                       $     
 $                                                                $
 $$$$$$$$$$$$$$$$$$$$$$$$$$$$$$$$$$$$$$$$$$$$$$$$$$$$$$$$$$$$$$$$$$     



 Program SWINTERF  ( last modified 12-Jan-2004 )

 Water photo-ionization                                     20190326  155700.251


 Symmetry data   MGVN = 1 STOT = 1

 Input datasets:             Unit  Set number
 Target data          LUTARG  24       1       FORMATTED
 Boundary amplitudes  LUAMP   22       1     UNFORMATTED
 CI data              LUCI    25       2     UNFORMATTED
 Buttle corrections   LUBUT    0       1     UNFORMATTED

 Output datasets:            Unit  Set number
 Channel data         LUCHAN  10       1     UNFORMATTED
 R-Matrix data        LURMT   21       1     UNFORMATTED

 We are using UKRmol+ input

 Assuming full CI vectors have been saved on LUCI 

 Target rotational constants (a.u.)   0.124789D-03   0.664393D-04   0.433559D-04

 Nuclear centres 
    Atom  Charge      X         Y         Z         Mass
  1   O      8     0.000000  0.000000 -0.124014   15.994900
  2   H      1     0.000000  1.431150  0.984096    1.007800
  3   H      1     0.000000 -1.431150  0.984096    1.007800

 Reduced mass     890.471806 au

 Transition moments
    2    0    2    0    1    0  -0.76975
    2    0    2    0    2    0  -0.64080
    2    0    2    0    2    2   2.37296
    1    1    2    0    1    1   0.16470
    1    1    2    0    2    1  -0.62958
    1    1    1    1    1    0  -0.97312
    1    1    1    1    2    0   0.46636
    1    1    1    1    2    2   1.70159
    3    2    2    0    1   -1  -0.07276
    3    2    2    0    2   -1  -0.84582
    3    2    1    1    2   -2  -0.62069
    3    2    3    2    1    0  -1.25305
    3    2    3    2    2    0   0.49950
    3    2    3    2    2    2   3.20574

 READCIP start

 CI file header data:
 --------------------
 MGVN  =  0
 NSET  =  1
 NSTAT =        343
 NOCSF =        343

 CI file header data:
 --------------------
 MGVN  =  1
 NSET  =  2
 NSTAT =        308
 NOCSF =        308

 READCIP end

 R-matrix radius  =   15.00
 Residual charge on system = 1

 Channel Target  l  m  q       Irr  Energy   Energy(eV)
    1       1    0  0  0  N/A   1  0.000000  0.000000
    2       1    1  0  0  N/A   1  0.000000  0.000000
    3       1    2  0  0  N/A   1  0.000000  0.000000
    4       1    2  2  1  N/A   1  0.000000  0.000000
    5       1    3  0  0  N/A   1  0.000000  0.000000
    6       1    3  2  1  N/A   1  0.000000  0.000000
    7       1    4  0  0  N/A   1  0.000000  0.000000
    8       1    4  2  1  N/A   1  0.000000  0.000000
    9       1    4  4  1  N/A   1  0.000000  0.000000
   10       2    1  1  1  N/A   2  0.185137  2.518876
   11       2    2  1  1  N/A   2  0.185137  2.518876
   12       2    3  1  1  N/A   2  0.185137  2.518876
   13       2    3  3  1  N/A   2  0.185137  2.518876
   14       2    4  1  1  N/A   2  0.185137  2.518876
   15       2    4  3  1  N/A   2  0.185137  2.518876
   16       3    2  2 -1  N/A   4  0.502441  6.835932
   17       3    3  2 -1  N/A   4  0.502441  6.835932
   18       3    4  4 -1  N/A   4  0.502441  6.835932
   19       3    4  2 -1  N/A   4  0.502441  6.835932

 Dimension of Hamiltonian matrix           NOCSF =       308
 Number of CSFs used to construct R-matrix NSTAT =  308
 Number of eigenvectors to be retained     NPOLE =    0
 Number of multipoles in potential         ISMAX =    2

 READCIP start

 Reading CI coefficients...
 Last pole include at                   308  is  -4.844474262356435E-002  Ryd

 READCIP end

     R-matrix boundary amplitudes 

     At radial distance RMATR -      0.00000000 Bohr radii
     No. of channels     =    19
     No. of eigenvectors =   308
     No. of correction terms =     0


     First 30 R-matrix amplitudes

     Channel =   1      0.01607194     -0.03337125     -0.24038734
                        0.03227129     -0.02346275      0.11039169
                        0.00462408     -0.00058437      0.10645260
                       -0.02260211     -0.04396261      0.00348909
                        0.00071308      0.00050618     -0.26728030
                        0.00003915      0.00883514      0.02089972
                        0.00239309      0.09777152      0.00066999
                       -0.00012346      0.08521828      0.01344471
                        0.00002505     -0.00001697     -0.01023629
                        0.00152613     -0.00048460     -0.00012124
     Channel =   2      0.00679120      0.10163027     -0.08916391
                        0.05410917      0.05208393     -0.27784055
                       -0.00142735      0.00308639     -0.01179765
                       -0.09341410     -0.03249326      0.00120222
                        0.00098426      0.00040371     -0.10389267
                        0.00348003     -0.01712383     -0.01802431
                       -0.00258350     -0.25266357     -0.00181268
                        0.00049871     -0.03962905     -0.01010436
                       -0.00004970     -0.00026298     -0.09382401
                       -0.00012840     -0.00259824     -0.00076516
     Channel =   3      0.00076479      0.02885168     -0.01425100
                       -0.08041591     -0.19653847     -0.09516013
                        0.03096736     -0.03906597      0.10064562
                        0.24689400      0.06886599     -0.00043237
                       -0.00001852     -0.00228065     -0.02687255
                       -0.00384441     -0.00949948      0.02230763
                       -0.03653262     -0.10457736     -0.00058133
                        0.00043072      0.09386220      0.03571421
                        0.00030462      0.00086168      0.23170618
                        0.00174050      0.00709421      0.00352452
     Channel =   4     -0.00098845      0.00297591     -0.01621405
                       -0.18755735      0.10043308     -0.01858989
                        0.03711567      0.01922626      0.25128824
                       -0.08750019     -0.04244122     -0.00212035
                        0.00301387      0.00095946      0.11533213
                        0.00305073      0.01343409      0.03709301
                        0.01869099     -0.03283388     -0.00038578
                        0.00022092      0.22906628      0.03940603
                       -0.00002791     -0.00017181     -0.11093807
                       -0.00033020     -0.00867224     -0.00175708
     Channel =   5     -0.00006134      0.00255716     -0.00135661
                       -0.01498435     -0.03248791     -0.01125807
                       -0.17307192      0.24687721      0.02541989
                        0.03659207      0.01269420      0.00749846
                       -0.02647272      0.03203556     -0.00605883
                        0.00754152     -0.01858001     -0.16642442
                        0.22477504     -0.00384067      0.00027935
                       -0.00196059      0.02642253      0.01481374
                        0.00034991     -0.00001551      0.03026244
                        0.01081698      0.02181447     -0.02510075
     Channel =   6     -0.00029765     -0.00070645     -0.00184319
                       -0.02387995      0.01156712     -0.00210636
                       -0.24539057     -0.17701899      0.03863897
                       -0.00952831     -0.01063668      0.01255409
                       -0.02654906     -0.02207491      0.00881484
                       -0.01300257      0.01651844     -0.22360717
                       -0.16758195      0.01524425      0.00442838
                        0.00043427      0.04427208     -0.00398992
                        0.00034140     -0.00002351     -0.01597535
                        0.01451225      0.01982201      0.01790716
     Channel =   7     -0.00002335     -0.00002298     -0.00001365
                       -0.00069900     -0.00190120     -0.00051854
                       -0.02192302      0.02983863      0.00196665
                        0.00373684      0.00200196     -0.05849038
                        0.21057215     -0.27011135     -0.00186004
                       -0.00116695     -0.00202977     -0.02178247
                        0.02614810      0.00034503     -0.00169397
                        0.00303419      0.00093139      0.00428456
                       -0.00030617      0.00067585      0.00703935
                       -0.08137106     -0.16618014      0.21903079
     Channel =   8     -0.00004245     -0.00034217     -0.00000056
                       -0.00078559      0.00155445      0.00021079
                       -0.02662877     -0.01829664      0.00248862
                        0.00135974      0.00139210     -0.11848710
                        0.24409252      0.21765458     -0.00096866
                        0.00089861      0.00152688     -0.02487013
                       -0.01708183      0.00162246      0.00168579
                       -0.00420118      0.00337163     -0.00390728
                       -0.00210112     -0.00000089      0.00869439
                       -0.13454119     -0.17462377     -0.18366860
     Channel =   9      0.00001729     -0.00003728      0.00016898
                        0.00162518     -0.00081499      0.00011076
                       -0.00004175      0.00000335      0.00053547
                       -0.00098282     -0.00193845     -0.32282058
                       -0.12956339     -0.03106932     -0.00386016
                        0.00004274     -0.00001264      0.00057362
                        0.00043461     -0.00011068      0.00483762
                        0.00262253      0.00293925      0.00043724
                       -0.00156247     -0.00085618     -0.00484211
                       -0.24126864      0.15563904      0.02857713
     Channel =  10     -0.00012036      0.00060412      0.00142304
                        0.00104977     -0.00136153     -0.00041871
                       -0.00040754     -0.00133107      0.00577978
                       -0.02918807      0.10598903     -0.00009440
                       -0.00072650     -0.00040325     -0.01179050
                        0.04630281      0.30661270     -0.00225211
                        0.02036160     -0.02024420     -0.00136076
                       -0.00251113     -0.02854695      0.05760772
                        0.00057171      0.00114095      0.01311963
                       -0.00003457      0.00063296     -0.00104614
     Channel =  11     -0.00000323     -0.00053944      0.00005990
                       -0.00035404     -0.00057263      0.00106321
                        0.00070802      0.00197864      0.00115363
                       -0.00561867      0.01869334     -0.00023531
                        0.00006058      0.00140570     -0.00215410
                       -0.22386474      0.06111536      0.00676256
                        0.02393305     -0.01102243     -0.01654577
                        0.03003239      0.05004120     -0.28193198
                       -0.00158233     -0.00471325      0.02566277
                        0.00073092      0.00095947      0.00318165
     Channel =  12      0.00000417      0.00000312     -0.00004419
                        0.00014159      0.00091206      0.00009302
                       -0.00026185      0.00037964      0.00005862
                       -0.00142429      0.00212802      0.00035665
                       -0.00034272     -0.00239789     -0.00018956
                       -0.02652205      0.00549672      0.00298244
                        0.00270139     -0.00260099      0.14417736
                       -0.26923848      0.00531827     -0.03017639
                       -0.01549226      0.02670354      0.00459298
                        0.00233022      0.00126740      0.01250524
     Channel =  13      0.00000508     -0.00001798      0.00007530
                        0.00078775     -0.00041510      0.00005768
                       -0.00039790     -0.00024617     -0.00092445
                        0.00085585     -0.00194926      0.00221121
                        0.00125355      0.00050167     -0.00000579
                       -0.00035292      0.00030414      0.00230448
                        0.00270108     -0.00178007      0.26975838
                        0.14651574     -0.00062289      0.00135841
                       -0.02057770     -0.01063451      0.00004610
                        0.00903611     -0.00753034     -0.00226686
     Channel =  14      0.00000090      0.00001332     -0.00000437
                       -0.00000425     -0.00005919     -0.00002606
                        0.00026407     -0.00109527     -0.00000615
                       -0.00001270      0.00015666     -0.00007124
                        0.00022363     -0.00020009     -0.00002247
                       -0.00275415      0.00041997      0.00032089
                        0.00014507     -0.00021188      0.01342372
                       -0.02424452     -0.00021168      0.00132356
                        0.16813418     -0.30555106      0.00087302
                       -0.00074899     -0.00134632      0.00091001
     Channel =  15      0.00000031      0.00000425     -0.00000304
                       -0.00003476      0.00002465     -0.00000253
                        0.00084901      0.00060912     -0.00002503
                        0.00010837     -0.00035567     -0.00032779
                        0.00021853      0.00023013      0.00005616
                        0.00186257     -0.00027410      0.00026114
                        0.00010027     -0.00006576      0.01789310
                        0.00934631      0.00064412     -0.00499250
                        0.30515589      0.16899858     -0.00046023
                       -0.00259384     -0.00073276     -0.00147574
     Channel =  16     -0.00000907      0.00002532      0.00009963
                       -0.00003942     -0.00005054     -0.00006943
                        0.00000799     -0.00001158     -0.00002585
                        0.00010818     -0.00011630     -0.00014679
                       -0.00007607      0.00000584      0.00009592
                        0.00009018     -0.00033950      0.00000260
                       -0.00003593     -0.00002631      0.00047497
                        0.00010320      0.00007802      0.00004099
                        0.00032312      0.00004647     -0.00003562
                        0.00010472     -0.00008994      0.00000498
     Channel =  17     -0.00000255     -0.00002885      0.00002494
                       -0.00002015     -0.00002411      0.00006536
                       -0.00005300      0.00007515      0.00000234
                        0.00005850     -0.00008526     -0.00000073
                       -0.00000703      0.00000814      0.00003210
                        0.00019748     -0.00021181     -0.00003052
                        0.00000953      0.00006434      0.00014195
                        0.00018356     -0.00000253      0.00019312
                        0.00047930      0.00006299     -0.00001140
                        0.00001406     -0.00001261     -0.00000921
     Channel =  18      0.00000045     -0.00000121      0.00000549
                        0.00006357     -0.00003339      0.00000614
                       -0.00001483     -0.00000819     -0.00007399
                        0.00002410      0.00001665     -0.00001464
                        0.00002767      0.00002524     -0.00003285
                       -0.00000119     -0.00000079     -0.00001331
                       -0.00000834      0.00000977     -0.00029966
                       -0.00016007     -0.00005096     -0.00000668
                       -0.00013652     -0.00007516      0.00002462
                       -0.00001524      0.00000333     -0.00000503
     Channel =  19     -0.00000029     -0.00000726      0.00000365
                        0.00001719      0.00004254      0.00002049
                       -0.00001412      0.00001818     -0.00002004
                       -0.00004022     -0.00002758      0.00002049
                        0.00007952     -0.00007704      0.00000687
                        0.00014828     -0.00003690     -0.00001411
                       -0.00000449      0.00002499     -0.00015058
                        0.00018222     -0.00003549      0.00012806
                        0.00012362      0.00016675     -0.00004281
                       -0.00000233     -0.00002617      0.00001239

 Channel data will be written UNFORMATTED to set number  1 on unit number 10
 Header : Water photo-ionization                                     20190326  155700.251

 Target state    Spin    M    G/U  Energy (au)
         1         2     1     0  -75.650968
         2         2     0     0  -75.558400
         3         2     2     0  -75.399748

 Residual charge on system = 1

 Channel   Target state  L   M  Threshold (Ryd)
    1            1       0   0    0.000000
    2            1       1   0    0.000000
    3            1       2   0    0.000000
    4            1       2   2    0.000000
    5            1       3   0    0.000000
    6            1       3   2    0.000000
    7            1       4   0    0.000000
    8            1       4   2    0.000000
    9            1       4   4    0.000000
   10            2       1   1    0.185137
   11            2       2   1    0.185137
   12            2       3   1    0.185137
   13            2       3   3    0.185137
   14            2       4   1    0.185137
   15            2       4   3    0.185137
   16            3       2  -2    0.502441
   17            3       3  -2    0.502441
   18            3       4  -4    0.502441
   19            3       4  -2    0.502441

 R-matrix data will be written UNFORMATTED to set number  1 on unit number 21
 Header : Water photo-ionization                                     20190326  155700.251


 *** Task has been successfully completed ***


 Program RSOLVE  (last modified 05-Jan-2004 )

 Water photo-ionization                                     20190326  155700.318

 Symmetry data  MGVN = 1 STOT = 1 GUTOT = 0

 Fixed nuclei calculation for R = 0.000

 Input datasets:                                 Unit  Set numbers
 Target and channel data     LUCHAN (UNFORMATTED) 10       1
 Fixed nuclei R-matrix data  LURMT  (UNFORMATTED) 21       1

 Output datasets:                                Unit  Set number
 K-matrices                  LUKMT  (FORMATTED  ) 19       1

 K-matrices will be calculated for  700 energies in the range [  0.1000, 70.1000] EV 

 *** FIXED NUCLEI DATA ***

 R-matrix data has been read from set number  1 on unit number 21
 Header : Water photo-ionization                                     20190326  155700.251

 Dimension of Hamiltonian matrix           =       308
 Number of CI vectors stored on file       =    0
 Maximum multipole in asymptotic potential =    2
 R-matrix radius                           =   15.0000

 Maximum multipole USED in asymptotic scattering potentials   ISMAX =  2

 *** FIXED NUCLEI DATA ***

 Target and channel data is read from set  1 on unit 10

 Target state    Spin    M    G/U  Energy (au)
         1         2     1     0  -75.650968
         2         2     0     0  -75.558400
         3         2     2     0  -75.399748

 Channel   Vibronic level   L   M  Threshold (Ryd)
    1              1        0   0    0.000000
    2              1        1   0    0.000000
    3              1        2   0    0.000000
    4              1        2   2    0.000000
    5              1        3   0    0.000000
    6              1        3   2    0.000000
    7              1        4   0    0.000000
    8              1        4   2    0.000000
    9              1        4   4    0.000000
   10              2        1   1    0.185137
   11              2        2   1    0.185137
   12              2        3   1    0.185137
   13              2        3   3    0.185137
   14              2        4   1    0.185137
   15              2        4   3    0.185137
   16              3        2  -2    0.502441
   17              3        3  -2    0.502441
   18              3        4  -4    0.502441
   19              3        4  -2    0.502441

 R-matrix data has been read from set number  1 on unit number 21
 Header : Water photo-ionization                                     20190326  155700.251

 Dimension of Hamiltonian matrix           =       308
 Number of CI vectors stored on file       =    0
 Maximum multipole in asymptotic potential =    2
 R-matrix radius                           =   15.0000
 IWRON                     0

 ASYMPTOTIC METHOD SELECTED : COULOMB/BESSEL
 EXPANSION USED AT RADIUS =   15.0000

 K-matrices will be written to set  1 on unit 19
Assuming scattering particle is electron.
  1   O      8     0.000000  0.000000 -0.124014   15.994900
  2   H      1     0.000000  1.431150  0.984096    1.007800
  3   H      1     0.000000 -1.431150  0.984096    1.007800

 Transition moments
                     1
                     2
                     3
                     4
                     5
                     6
                     7
                     8
                     9
                    10
                    11
                    12
                    13
                    14
                    15
                    16
                    17
                    18
                    19
                    20
                    21
                    22
                    23
                    24
 COULN : IERR = 1 L =  1 E=  -0.00139 NLAST = 50 EPS =.100D-09 EFX =.575D-01 FNORM =  0.100000000000D+01
 COULN : IERR = 1 L =  2 E=  -0.00139 NLAST = 50 EPS =.100D-09 EFX =.868D-03 FNORM =  0.100000000000D+01
 COULN : IERR = 1 L =  3 E=  -0.00139 NLAST = 50 EPS =.100D-09 EFX =.969D-02 FNORM =  0.100000000000D+01
 COULN : IERR = 1 L =  3 E=  -0.00139 NLAST = 50 EPS =.100D-09 EFX =.969D-02 FNORM =  0.100000000000D+01
 COULN : IERR = 1 L =  4 E=  -0.00139 NLAST = 50 EPS =.100D-09 EFX =.409D-02 FNORM =  0.100000000000D+01
 COULN : IERR = 1 L =  4 E=  -0.00139 NLAST = 50 EPS =.100D-09 EFX =.409D-02 FNORM =  0.100000000000D+01
                    25
                    26
                    27
                    28
                    29
                    30
                    31
                    32
                    33
                    34
                    35
                    36
                    37
                    38
                    39
                    40
                    41
                    42
                    43
                    44
                    45
                    46
                    47
                    48
                    49
                    50
                    51
                    52
                    53
                    54
                    55
                    56
                    57
                    58
                    59
                    60
                    61
                    62
                    63
                    64
                    65
                    66
                    67
 COULN : IERR = 1 L =  2 E=  -0.00264 NLAST = 60 EPS =.100D-09 EFX =.661D-09 FNORM =  0.100000000000D+01
 COULN : IERR = 1 L =  3 E=  -0.00264 NLAST = 60 EPS =.100D-09 EFX =.996D-09 FNORM =  0.100000000000D+01
 COULN : IERR = 1 L =  4 E=  -0.00264 NLAST = 60 EPS =.100D-09 EFX =.226D-05 FNORM =  0.100000000000D+01
 COULN : IERR = 1 L =  4 E=  -0.00264 NLAST = 60 EPS =.100D-09 EFX =.226D-05 FNORM =  0.100000000000D+01
                    68
                    69
                    70
                    71
                    72
                    73
                    74
                    75
                    76
                    77
                    78
                    79
                    80
                    81
                    82
                    83
                    84
                    85
                    86
                    87
                    88
                    89
                    90
                    91
                    92
                    93
                    94
                    95
                    96
                    97
                    98
                    99
                   100
                   101
                   102
                   103
                   104
                   105
                   106
                   107
                   108
                   109
                   110
                   111
                   112
                   113
                   114
                   115
                   116
                   117
                   118
                   119
                   120
                   121
                   122
                   123
                   124
                   125
                   126
                   127
                   128
                   129
                   130
                   131
                   132
                   133
                   134
                   135
                   136
                   137
                   138
                   139
                   140
                   141
                   142
                   143
                   144
                   145
                   146
                   147
                   148
                   149
                   150
                   151
                   152
                   153
                   154
                   155
                   156
                   157
                   158
                   159
                   160
                   161
                   162
                   163
                   164
                   165
                   166
                   167
                   168
                   169
                   170
                   171
                   172
                   173
                   174
                   175
                   176
                   177
                   178
                   179
                   180
                   181
                   182
                   183
                   184
                   185
                   186
                   187
                   188
                   189
                   190
                   191
                   192
                   193
                   194
                   195
                   196
                   197
                   198
                   199
                   200
                   201
                   202
                   203
                   204
                   205
                   206
                   207
                   208
                   209
                   210
                   211
                   212
                   213
                   214
                   215
                   216
                   217
                   218
                   219
                   220
                   221
                   222
                   223
                   224
                   225
                   226
                   227
                   228
                   229
                   230
                   231
                   232
                   233
                   234
                   235
                   236
                   237
                   238
                   239
                   240
                   241
                   242
                   243
                   244
                   245
                   246
                   247
                   248
                   249
                   250
                   251
                   252
                   253
                   254
                   255
                   256
                   257
                   258
                   259
                   260
                   261
                   262
                   263
                   264
                   265
                   266
                   267
                   268
                   269
                   270
                   271
                   272
                   273
                   274
                   275
                   276
                   277
                   278
                   279
                   280
                   281
                   282
                   283
                   284
                   285
                   286
                   287
                   288
                   289
                   290
                   291
                   292
                   293
                   294
                   295
                   296
                   297
                   298
                   299
                   300
                   301
                   302
                   303
                   304
                   305
                   306
                   307
                   308
                   309
                   310
                   311
                   312
                   313
                   314
                   315
                   316
                   317
                   318
                   319
                   320
                   321
                   322
                   323
                   324
                   325
                   326
                   327
                   328
                   329
                   330
                   331
                   332
                   333
                   334
                   335
                   336
                   337
                   338
                   339
                   340
                   341
                   342
                   343
                   344
                   345
                   346
                   347
                   348
                   349
                   350
                   351
                   352
                   353
                   354
                   355
                   356
                   357
                   358
                   359
                   360
                   361
                   362
                   363
                   364
                   365
                   366
                   367
                   368
                   369
                   370
                   371
                   372
                   373
                   374
                   375
                   376
                   377
                   378
                   379
                   380
                   381
                   382
                   383
                   384
                   385
                   386
                   387
                   388
                   389
                   390
                   391
                   392
                   393
                   394
                   395
                   396
                   397
                   398
                   399
                   400
                   401
                   402
                   403
                   404
                   405
                   406
                   407
                   408
                   409
                   410
                   411
                   412
                   413
                   414
                   415
                   416
                   417
                   418
                   419
                   420
                   421
                   422
                   423
                   424
                   425
                   426
                   427
                   428
                   429
                   430
                   431
                   432
                   433
                   434
                   435
                   436
                   437
                   438
                   439
                   440
                   441
                   442
                   443
                   444
                   445
                   446
                   447
                   448
                   449
                   450
                   451
                   452
                   453
                   454
                   455
                   456
                   457
                   458
                   459
                   460
                   461
                   462
                   463
                   464
                   465
                   466
                   467
                   468
                   469
                   470
                   471
                   472
                   473
                   474
                   475
                   476
                   477
                   478
                   479
                   480
                   481
                   482
                   483
                   484
                   485
                   486
                   487
                   488
                   489
                   490
                   491
                   492
                   493
                   494
                   495
                   496
                   497
                   498
                   499
                   500
                   501
                   502
                   503
                   504
                   505
                   506
                   507
                   508
                   509
                   510
                   511
                   512
                   513
                   514
                   515
                   516
                   517
                   518
                   519
                   520
                   521
                   522
                   523
                   524
                   525
                   526
                   527
                   528
                   529
                   530
                   531
                   532
                   533
                   534
                   535
                   536
                   537
                   538
                   539
                   540
                   541
                   542
                   543
                   544
                   545
                   546
                   547
                   548
                   549
                   550
                   551
                   552
                   553
                   554
                   555
                   556
                   557
                   558
                   559
                   560
                   561
                   562
                   563
                   564
                   565
                   566
                   567
                   568
                   569
                   570
                   571
                   572
                   573
                   574
                   575
                   576
                   577
                   578
                   579
                   580
                   581
                   582
                   583
                   584
                   585
                   586
                   587
                   588
                   589
                   590
                   591
                   592
                   593
                   594
                   595
                   596
                   597
                   598
                   599
                   600
                   601
                   602
                   603
                   604
                   605
                   606
                   607
                   608
                   609
                   610
                   611
                   612
                   613
                   614
                   615
                   616
                   617
                   618
                   619
                   620
                   621
                   622
                   623
                   624
                   625
                   626
                   627
                   628
                   629
                   630
                   631
                   632
                   633
                   634
                   635
                   636
                   637
                   638
                   639
                   640
                   641
                   642
                   643
                   644
                   645
                   646
                   647
                   648
                   649
                   650
                   651
                   652
                   653
                   654
                   655
                   656
                   657
                   658
                   659
                   660
                   661
                   662
                   663
                   664
                   665
                   666
                   667
                   668
                   669
                   670
                   671
                   672
                   673
                   674
                   675
                   676
                   677
                   678
                   679
                   680
                   681
                   682
                   683
                   684
                   685
                   686
                   687
                   688
                   689
                   690
                   691
                   692
                   693
                   694
                   695
                   696
                   697
                   698
                   699
                   700

Number of energy points for which the K matrices have actually been calculated:      0

 *** Task successfully completed ***
